^C:\USERS\7088881\DOCUMENTS\VISUAL STUDIO 2010\PROJECTS\LAB9\DEBUG\LAB9.EXE.EMBED.MANIFEST.RES|C:\USERS\7088881\DOCUMENTS\VISUAL STUDIO 2010\PROJECTS\LAB9\DEBUG\LAB9_2.OBJ
C:\USERS\7088881\DOCUMENTS\VISUAL STUDIO 2010\PROJECTS\LAB9\DEBUG\LAB9.ILK
C:\USERS\7088881\DOCUMENTS\VISUAL STUDIO 2010\PROJECTS\LAB9\DEBUG\LAB9.EXE
C:\USERS\7088881\DOCUMENTS\VISUAL STUDIO 2010\PROJECTS\LAB9\DEBUG\LAB9.EXE.INTERMEDIATE.MANIFEST
C:\USERS\7088881\DOCUMENTS\VISUAL STUDIO 2010\PROJECTS\LAB9\DEBUG\LAB9.PDB
