^C:\USERS\7088881\DOCUMENTS\VISUAL STUDIO 2010\PROJECTS\2B\DEBUG\2B.EXE.EMBED.MANIFEST.RES|C:\USERS\7088881\DOCUMENTS\VISUAL STUDIO 2010\PROJECTS\2B\DEBUG\PROG2B.OBJ
/ERRORREPORT:PROMPT /OUT:"C:\Users\7088881\documents\visual studio 2010\Projects\2b\Debug\2b.exe" /INCREMENTAL /NOLOGO kernel32.lib user32.lib gdi32.lib winspool.lib comdlg32.lib advapi32.lib shell32.lib ole32.lib oleaut32.lib uuid.lib odbc32.lib odbccp32.lib /MANIFEST /ManifestFile:"Debug\2b.exe.intermediate.manifest" /MANIFESTUAC:"level='asInvoker' uiAccess='false'" /DEBUG /PDB:"C:\Users\7088881\documents\visual studio 2010\Projects\2b\Debug\2b.pdb" /SUBSYSTEM:CONSOLE /TLBID:1 /DYNAMICBASE /NXCOMPAT /IMPLIB:"C:\Users\7088881\documents\visual studio 2010\Projects\2b\Debug\2b.lib" /MACHINE:X86 Debug\2b.exe.embed.manifest.res
Debug\prog2b.obj
