^C:\USERS\7088881\DOCUMENTS\VISUAL STUDIO 2010\PROJECTS\LAB6\LAB6_1.CPP
/c /ZI /nologo /W3 /WX- /Od /Oy- /D WIN32 /D _DEBUG /D _CONSOLE /D _UNICODE /D UNICODE /Gm /EHsc /RTC1 /MDd /GS /fp:precise /Zc:wchar_t /Zc:forScope /Fo"Debug\\" /Fd"Debug\vc100.pdb" /Gd /TP /analyze- /errorReport:prompt C:\USERS\7088881\DOCUMENTS\VISUAL STUDIO 2010\PROJECTS\LAB6\LAB6_1.CPP
^C:\USERS\7088881\DOCUMENTS\VISUAL STUDIO 2010\PROJECTS\LAB6\LAB6_2.CPP
/c /ZI /nologo /W3 /WX- /Od /Oy- /D WIN32 /D _DEBUG /D _CONSOLE /D _UNICODE /D UNICODE /Gm /EHsc /RTC1 /MDd /GS /fp:precise /Zc:wchar_t /Zc:forScope /Fo"Debug\\" /Fd"Debug\vc100.pdb" /Gd /TP /analyze- /errorReport:prompt C:\USERS\7088881\DOCUMENTS\VISUAL STUDIO 2010\PROJECTS\LAB6\LAB6_2.CPP
