^C:\USERS\7088881\DOCUMENTS\VISUAL STUDIO 2010\PROJECTS\QUADRATIC\QUADRATIC.CPP
C:\USERS\7088881\DOCUMENTS\VISUAL STUDIO 2010\PROJECTS\QUADRATIC\DEBUG\QUADRATIC.OBJ
C:\USERS\7088881\DOCUMENTS\VISUAL STUDIO 2010\PROJECTS\QUADRATIC\DEBUG\VC100.PDB
