^C:\Users\7088881\documents\visual studio 2010\Projects\gimp_read_write\gimp_read_write.vcxproj
C:\Users\7088881\documents\visual studio 2010\Projects\gimp_read_write\Debug\gimp_read_write.lib
C:\Users\7088881\documents\visual studio 2010\Projects\gimp_read_write\Debug\gimp_read_write.lib
C:\Users\7088881\documents\visual studio 2010\Projects\gimp_read_write\Debug\gimp_read_write.exp
C:\Users\7088881\documents\visual studio 2010\Projects\gimp_read_write\Debug\gimp_read_write.exp
^C:\Users\7088881\documents\visual studio 2010\Projects\gimp_read_write\gimp_read_write.vcxproj
C:\Users\7088881\documents\visual studio 2010\Projects\gimp_read_write\Debug\gimp_read_write.lib
C:\Users\7088881\documents\visual studio 2010\Projects\gimp_read_write\Debug\gimp_read_write.lib
C:\Users\7088881\documents\visual studio 2010\Projects\gimp_read_write\Debug\gimp_read_write.exp
C:\Users\7088881\documents\visual studio 2010\Projects\gimp_read_write\Debug\gimp_read_write.exp
^C:\Users\7088881\documents\visual studio 2010\Projects\gimp_read_write\gimp_read_write.vcxproj
C:\Users\7088881\documents\visual studio 2010\Projects\gimp_read_write\Debug\gimp_read_write.lib
C:\Users\7088881\documents\visual studio 2010\Projects\gimp_read_write\Debug\gimp_read_write.lib
C:\Users\7088881\documents\visual studio 2010\Projects\gimp_read_write\Debug\gimp_read_write.exp
C:\Users\7088881\documents\visual studio 2010\Projects\gimp_read_write\Debug\gimp_read_write.exp
^C:\Users\7088881\documents\visual studio 2010\Projects\gimp_read_write\gimp_read_write.vcxproj
C:\Users\7088881\documents\visual studio 2010\Projects\gimp_read_write\Debug\gimp_read_write.lib
C:\Users\7088881\documents\visual studio 2010\Projects\gimp_read_write\Debug\gimp_read_write.lib
C:\Users\7088881\documents\visual studio 2010\Projects\gimp_read_write\Debug\gimp_read_write.exp
C:\Users\7088881\documents\visual studio 2010\Projects\gimp_read_write\Debug\gimp_read_write.exp
^C:\Users\7088881\documents\visual studio 2010\Projects\gimp_read_write\gimp_read_write.vcxproj
C:\Users\7088881\documents\visual studio 2010\Projects\gimp_read_write\Debug\gimp_read_write.lib
C:\Users\7088881\documents\visual studio 2010\Projects\gimp_read_write\Debug\gimp_read_write.lib
C:\Users\7088881\documents\visual studio 2010\Projects\gimp_read_write\Debug\gimp_read_write.exp
C:\Users\7088881\documents\visual studio 2010\Projects\gimp_read_write\Debug\gimp_read_write.exp
^C:\Users\7088881\documents\visual studio 2010\Projects\gimp_read_write\gimp_read_write.vcxproj
C:\Users\7088881\documents\visual studio 2010\Projects\gimp_read_write\Debug\gimp_read_write.lib
C:\Users\7088881\documents\visual studio 2010\Projects\gimp_read_write\Debug\gimp_read_write.lib
C:\Users\7088881\documents\visual studio 2010\Projects\gimp_read_write\Debug\gimp_read_write.exp
C:\Users\7088881\documents\visual studio 2010\Projects\gimp_read_write\Debug\gimp_read_write.exp
^C:\Users\7088881\documents\visual studio 2010\Projects\gimp_read_write\gimp_read_write.vcxproj
C:\Users\7088881\documents\visual studio 2010\Projects\gimp_read_write\Debug\gimp_read_write.lib
C:\Users\7088881\documents\visual studio 2010\Projects\gimp_read_write\Debug\gimp_read_write.lib
C:\Users\7088881\documents\visual studio 2010\Projects\gimp_read_write\Debug\gimp_read_write.exp
C:\Users\7088881\documents\visual studio 2010\Projects\gimp_read_write\Debug\gimp_read_write.exp
^C:\Users\7088881\documents\visual studio 2010\Projects\gimp_read_write\gimp_read_write.vcxproj
C:\Users\7088881\documents\visual studio 2010\Projects\gimp_read_write\Debug\gimp_read_write.lib
C:\Users\7088881\documents\visual studio 2010\Projects\gimp_read_write\Debug\gimp_read_write.lib
C:\Users\7088881\documents\visual studio 2010\Projects\gimp_read_write\Debug\gimp_read_write.exp
C:\Users\7088881\documents\visual studio 2010\Projects\gimp_read_write\Debug\gimp_read_write.exp
^C:\Users\7088881\documents\visual studio 2010\Projects\gimp_read_write\gimp_read_write.vcxproj
C:\Users\7088881\documents\visual studio 2010\Projects\gimp_read_write\Debug\gimp_read_write.lib
C:\Users\7088881\documents\visual studio 2010\Projects\gimp_read_write\Debug\gimp_read_write.lib
C:\Users\7088881\documents\visual studio 2010\Projects\gimp_read_write\Debug\gimp_read_write.exp
C:\Users\7088881\documents\visual studio 2010\Projects\gimp_read_write\Debug\gimp_read_write.exp
^C:\Users\7088881\documents\visual studio 2010\Projects\gimp_read_write\gimp_read_write.vcxproj
C:\Users\7088881\documents\visual studio 2010\Projects\gimp_read_write\Debug\gimp_read_write.lib
C:\Users\7088881\documents\visual studio 2010\Projects\gimp_read_write\Debug\gimp_read_write.lib
C:\Users\7088881\documents\visual studio 2010\Projects\gimp_read_write\Debug\gimp_read_write.exp
C:\Users\7088881\documents\visual studio 2010\Projects\gimp_read_write\Debug\gimp_read_write.exp
^C:\Users\7088881\documents\visual studio 2010\Projects\gimp_read_write\gimp_read_write.vcxproj
C:\Users\7088881\documents\visual studio 2010\Projects\gimp_read_write\Debug\gimp_read_write.lib
C:\Users\7088881\documents\visual studio 2010\Projects\gimp_read_write\Debug\gimp_read_write.lib
C:\Users\7088881\documents\visual studio 2010\Projects\gimp_read_write\Debug\gimp_read_write.exp
C:\Users\7088881\documents\visual studio 2010\Projects\gimp_read_write\Debug\gimp_read_write.exp
^C:\Users\7088881\documents\visual studio 2010\Projects\gimp_read_write\gimp_read_write.vcxproj
C:\Users\7088881\documents\visual studio 2010\Projects\gimp_read_write\Debug\gimp_read_write.lib
C:\Users\7088881\documents\visual studio 2010\Projects\gimp_read_write\Debug\gimp_read_write.lib
C:\Users\7088881\documents\visual studio 2010\Projects\gimp_read_write\Debug\gimp_read_write.exp
C:\Users\7088881\documents\visual studio 2010\Projects\gimp_read_write\Debug\gimp_read_write.exp
^C:\Users\7088881\documents\visual studio 2010\Projects\gimp_read_write\gimp_read_write.vcxproj
C:\Users\7088881\documents\visual studio 2010\Projects\gimp_read_write\Debug\gimp_read_write.lib
C:\Users\7088881\documents\visual studio 2010\Projects\gimp_read_write\Debug\gimp_read_write.lib
C:\Users\7088881\documents\visual studio 2010\Projects\gimp_read_write\Debug\gimp_read_write.exp
C:\Users\7088881\documents\visual studio 2010\Projects\gimp_read_write\Debug\gimp_read_write.exp
^C:\Users\7088881\documents\visual studio 2010\Projects\gimp_read_write\gimp_read_write.vcxproj
C:\Users\7088881\documents\visual studio 2010\Projects\gimp_read_write\Debug\gimp_read_write.lib
C:\Users\7088881\documents\visual studio 2010\Projects\gimp_read_write\Debug\gimp_read_write.lib
C:\Users\7088881\documents\visual studio 2010\Projects\gimp_read_write\Debug\gimp_read_write.exp
C:\Users\7088881\documents\visual studio 2010\Projects\gimp_read_write\Debug\gimp_read_write.exp
^C:\Users\7088881\documents\visual studio 2010\Projects\gimp_read_write\gimp_read_write.vcxproj
C:\Users\7088881\documents\visual studio 2010\Projects\gimp_read_write\Debug\gimp_read_write.lib
C:\Users\7088881\documents\visual studio 2010\Projects\gimp_read_write\Debug\gimp_read_write.lib
C:\Users\7088881\documents\visual studio 2010\Projects\gimp_read_write\Debug\gimp_read_write.exp
C:\Users\7088881\documents\visual studio 2010\Projects\gimp_read_write\Debug\gimp_read_write.exp
^C:\Users\7088881\documents\visual studio 2010\Projects\gimp_read_write\gimp_read_write.vcxproj
C:\Users\7088881\documents\visual studio 2010\Projects\gimp_read_write\Debug\gimp_read_write.lib
C:\Users\7088881\documents\visual studio 2010\Projects\gimp_read_write\Debug\gimp_read_write.lib
C:\Users\7088881\documents\visual studio 2010\Projects\gimp_read_write\Debug\gimp_read_write.exp
C:\Users\7088881\documents\visual studio 2010\Projects\gimp_read_write\Debug\gimp_read_write.exp
^C:\Users\7088881\documents\visual studio 2010\Projects\gimp_read_write\gimp_read_write.vcxproj
C:\Users\7088881\documents\visual studio 2010\Projects\gimp_read_write\Debug\gimp_read_write.lib
C:\Users\7088881\documents\visual studio 2010\Projects\gimp_read_write\Debug\gimp_read_write.lib
C:\Users\7088881\documents\visual studio 2010\Projects\gimp_read_write\Debug\gimp_read_write.exp
C:\Users\7088881\documents\visual studio 2010\Projects\gimp_read_write\Debug\gimp_read_write.exp
^C:\Users\7088881\documents\visual studio 2010\Projects\gimp_read_write\gimp_read_write.vcxproj
C:\Users\7088881\documents\visual studio 2010\Projects\gimp_read_write\Debug\gimp_read_write.lib
C:\Users\7088881\documents\visual studio 2010\Projects\gimp_read_write\Debug\gimp_read_write.lib
C:\Users\7088881\documents\visual studio 2010\Projects\gimp_read_write\Debug\gimp_read_write.exp
C:\Users\7088881\documents\visual studio 2010\Projects\gimp_read_write\Debug\gimp_read_write.exp
^C:\Users\7088881\documents\visual studio 2010\Projects\gimp_read_write\gimp_read_write.vcxproj
C:\Users\7088881\documents\visual studio 2010\Projects\gimp_read_write\Debug\gimp_read_write.lib
C:\Users\7088881\documents\visual studio 2010\Projects\gimp_read_write\Debug\gimp_read_write.lib
C:\Users\7088881\documents\visual studio 2010\Projects\gimp_read_write\Debug\gimp_read_write.exp
C:\Users\7088881\documents\visual studio 2010\Projects\gimp_read_write\Debug\gimp_read_write.exp
^C:\Users\7088881\documents\visual studio 2010\Projects\gimp_read_write\gimp_read_write.vcxproj
C:\Users\7088881\documents\visual studio 2010\Projects\gimp_read_write\Debug\gimp_read_write.lib
C:\Users\7088881\documents\visual studio 2010\Projects\gimp_read_write\Debug\gimp_read_write.lib
C:\Users\7088881\documents\visual studio 2010\Projects\gimp_read_write\Debug\gimp_read_write.exp
C:\Users\7088881\documents\visual studio 2010\Projects\gimp_read_write\Debug\gimp_read_write.exp
^C:\Users\7088881\documents\visual studio 2010\Projects\gimp_read_write\gimp_read_write.vcxproj
C:\Users\7088881\documents\visual studio 2010\Projects\gimp_read_write\Debug\gimp_read_write.lib
C:\Users\7088881\documents\visual studio 2010\Projects\gimp_read_write\Debug\gimp_read_write.lib
C:\Users\7088881\documents\visual studio 2010\Projects\gimp_read_write\Debug\gimp_read_write.exp
C:\Users\7088881\documents\visual studio 2010\Projects\gimp_read_write\Debug\gimp_read_write.exp
^C:\Users\7088881\documents\visual studio 2010\Projects\gimp_read_write\gimp_read_write.vcxproj
C:\Users\7088881\documents\visual studio 2010\Projects\gimp_read_write\Debug\gimp_read_write.lib
C:\Users\7088881\documents\visual studio 2010\Projects\gimp_read_write\Debug\gimp_read_write.lib
C:\Users\7088881\documents\visual studio 2010\Projects\gimp_read_write\Debug\gimp_read_write.exp
C:\Users\7088881\documents\visual studio 2010\Projects\gimp_read_write\Debug\gimp_read_write.exp
^C:\Users\7088881\documents\visual studio 2010\Projects\gimp_read_write\gimp_read_write.vcxproj
C:\Users\7088881\documents\visual studio 2010\Projects\gimp_read_write\Debug\gimp_read_write.lib
C:\Users\7088881\documents\visual studio 2010\Projects\gimp_read_write\Debug\gimp_read_write.lib
C:\Users\7088881\documents\visual studio 2010\Projects\gimp_read_write\Debug\gimp_read_write.exp
C:\Users\7088881\documents\visual studio 2010\Projects\gimp_read_write\Debug\gimp_read_write.exp
^C:\Users\7088881\documents\visual studio 2010\Projects\gimp_read_write\gimp_read_write.vcxproj
C:\Users\7088881\documents\visual studio 2010\Projects\gimp_read_write\Debug\gimp_read_write.lib
C:\Users\7088881\documents\visual studio 2010\Projects\gimp_read_write\Debug\gimp_read_write.lib
C:\Users\7088881\documents\visual studio 2010\Projects\gimp_read_write\Debug\gimp_read_write.exp
C:\Users\7088881\documents\visual studio 2010\Projects\gimp_read_write\Debug\gimp_read_write.exp
^C:\Users\7088881\documents\visual studio 2010\Projects\gimp_read_write\gimp_read_write.vcxproj
C:\Users\7088881\documents\visual studio 2010\Projects\gimp_read_write\Debug\gimp_read_write.lib
C:\Users\7088881\documents\visual studio 2010\Projects\gimp_read_write\Debug\gimp_read_write.lib
C:\Users\7088881\documents\visual studio 2010\Projects\gimp_read_write\Debug\gimp_read_write.exp
C:\Users\7088881\documents\visual studio 2010\Projects\gimp_read_write\Debug\gimp_read_write.exp
^C:\Users\7088881\documents\visual studio 2010\Projects\gimp_read_write\gimp_read_write.vcxproj
C:\Users\7088881\documents\visual studio 2010\Projects\gimp_read_write\Debug\gimp_read_write.lib
C:\Users\7088881\documents\visual studio 2010\Projects\gimp_read_write\Debug\gimp_read_write.lib
C:\Users\7088881\documents\visual studio 2010\Projects\gimp_read_write\Debug\gimp_read_write.exp
C:\Users\7088881\documents\visual studio 2010\Projects\gimp_read_write\Debug\gimp_read_write.exp
^C:\Users\7088881\documents\visual studio 2010\Projects\gimp_read_write\gimp_read_write.vcxproj
C:\Users\7088881\documents\visual studio 2010\Projects\gimp_read_write\Debug\gimp_read_write.lib
C:\Users\7088881\documents\visual studio 2010\Projects\gimp_read_write\Debug\gimp_read_write.lib
C:\Users\7088881\documents\visual studio 2010\Projects\gimp_read_write\Debug\gimp_read_write.exp
C:\Users\7088881\documents\visual studio 2010\Projects\gimp_read_write\Debug\gimp_read_write.exp
^C:\Users\7088881\documents\visual studio 2010\Projects\gimp_read_write\gimp_read_write.vcxproj
C:\Users\7088881\documents\visual studio 2010\Projects\gimp_read_write\Debug\gimp_read_write.lib
C:\Users\7088881\documents\visual studio 2010\Projects\gimp_read_write\Debug\gimp_read_write.lib
C:\Users\7088881\documents\visual studio 2010\Projects\gimp_read_write\Debug\gimp_read_write.exp
C:\Users\7088881\documents\visual studio 2010\Projects\gimp_read_write\Debug\gimp_read_write.exp
^C:\Users\7088881\documents\visual studio 2010\Projects\gimp_read_write\gimp_read_write.vcxproj
C:\Users\7088881\documents\visual studio 2010\Projects\gimp_read_write\Debug\gimp_read_write.lib
C:\Users\7088881\documents\visual studio 2010\Projects\gimp_read_write\Debug\gimp_read_write.lib
C:\Users\7088881\documents\visual studio 2010\Projects\gimp_read_write\Debug\gimp_read_write.exp
C:\Users\7088881\documents\visual studio 2010\Projects\gimp_read_write\Debug\gimp_read_write.exp
^C:\Users\7088881\documents\visual studio 2010\Projects\gimp_read_write\gimp_read_write.vcxproj
C:\Users\7088881\documents\visual studio 2010\Projects\gimp_read_write\Debug\gimp_read_write.lib
C:\Users\7088881\documents\visual studio 2010\Projects\gimp_read_write\Debug\gimp_read_write.lib
C:\Users\7088881\documents\visual studio 2010\Projects\gimp_read_write\Debug\gimp_read_write.exp
C:\Users\7088881\documents\visual studio 2010\Projects\gimp_read_write\Debug\gimp_read_write.exp
^C:\Users\7088881\documents\visual studio 2010\Projects\gimp_read_write\gimp_read_write.vcxproj
C:\Users\7088881\documents\visual studio 2010\Projects\gimp_read_write\Debug\gimp_read_write.lib
C:\Users\7088881\documents\visual studio 2010\Projects\gimp_read_write\Debug\gimp_read_write.lib
C:\Users\7088881\documents\visual studio 2010\Projects\gimp_read_write\Debug\gimp_read_write.exp
C:\Users\7088881\documents\visual studio 2010\Projects\gimp_read_write\Debug\gimp_read_write.exp
^C:\Users\7088881\documents\visual studio 2010\Projects\gimp_read_write\gimp_read_write.vcxproj
C:\Users\7088881\documents\visual studio 2010\Projects\gimp_read_write\Debug\gimp_read_write.lib
C:\Users\7088881\documents\visual studio 2010\Projects\gimp_read_write\Debug\gimp_read_write.lib
C:\Users\7088881\documents\visual studio 2010\Projects\gimp_read_write\Debug\gimp_read_write.exp
C:\Users\7088881\documents\visual studio 2010\Projects\gimp_read_write\Debug\gimp_read_write.exp
^C:\Users\7088881\documents\visual studio 2010\Projects\gimp_read_write\gimp_read_write.vcxproj
C:\Users\7088881\documents\visual studio 2010\Projects\gimp_read_write\Debug\gimp_read_write.lib
C:\Users\7088881\documents\visual studio 2010\Projects\gimp_read_write\Debug\gimp_read_write.lib
C:\Users\7088881\documents\visual studio 2010\Projects\gimp_read_write\Debug\gimp_read_write.exp
C:\Users\7088881\documents\visual studio 2010\Projects\gimp_read_write\Debug\gimp_read_write.exp
^C:\Users\7088881\documents\visual studio 2010\Projects\gimp_read_write\gimp_read_write.vcxproj
C:\Users\7088881\documents\visual studio 2010\Projects\gimp_read_write\Debug\gimp_read_write.lib
C:\Users\7088881\documents\visual studio 2010\Projects\gimp_read_write\Debug\gimp_read_write.lib
C:\Users\7088881\documents\visual studio 2010\Projects\gimp_read_write\Debug\gimp_read_write.exp
C:\Users\7088881\documents\visual studio 2010\Projects\gimp_read_write\Debug\gimp_read_write.exp
^C:\Users\7088881\documents\visual studio 2010\Projects\gimp_read_write\gimp_read_write.vcxproj
C:\Users\7088881\documents\visual studio 2010\Projects\gimp_read_write\Debug\gimp_read_write.lib
C:\Users\7088881\documents\visual studio 2010\Projects\gimp_read_write\Debug\gimp_read_write.lib
C:\Users\7088881\documents\visual studio 2010\Projects\gimp_read_write\Debug\gimp_read_write.exp
C:\Users\7088881\documents\visual studio 2010\Projects\gimp_read_write\Debug\gimp_read_write.exp
^C:\Users\7088881\documents\visual studio 2010\Projects\gimp_read_write\gimp_read_write.vcxproj
C:\Users\7088881\documents\visual studio 2010\Projects\gimp_read_write\Debug\gimp_read_write.lib
C:\Users\7088881\documents\visual studio 2010\Projects\gimp_read_write\Debug\gimp_read_write.lib
C:\Users\7088881\documents\visual studio 2010\Projects\gimp_read_write\Debug\gimp_read_write.exp
C:\Users\7088881\documents\visual studio 2010\Projects\gimp_read_write\Debug\gimp_read_write.exp
^C:\Users\7088881\documents\visual studio 2010\Projects\gimp_read_write\gimp_read_write.vcxproj
C:\Users\7088881\documents\visual studio 2010\Projects\gimp_read_write\Debug\gimp_read_write.lib
C:\Users\7088881\documents\visual studio 2010\Projects\gimp_read_write\Debug\gimp_read_write.lib
C:\Users\7088881\documents\visual studio 2010\Projects\gimp_read_write\Debug\gimp_read_write.exp
C:\Users\7088881\documents\visual studio 2010\Projects\gimp_read_write\Debug\gimp_read_write.exp
^C:\Users\7088881\documents\visual studio 2010\Projects\gimp_read_write\gimp_read_write.vcxproj
C:\Users\7088881\documents\visual studio 2010\Projects\gimp_read_write\Debug\gimp_read_write.lib
C:\Users\7088881\documents\visual studio 2010\Projects\gimp_read_write\Debug\gimp_read_write.lib
C:\Users\7088881\documents\visual studio 2010\Projects\gimp_read_write\Debug\gimp_read_write.exp
C:\Users\7088881\documents\visual studio 2010\Projects\gimp_read_write\Debug\gimp_read_write.exp
^C:\Users\7088881\documents\visual studio 2010\Projects\gimp_read_write\gimp_read_write.vcxproj
C:\Users\7088881\documents\visual studio 2010\Projects\gimp_read_write\Debug\gimp_read_write.lib
C:\Users\7088881\documents\visual studio 2010\Projects\gimp_read_write\Debug\gimp_read_write.lib
C:\Users\7088881\documents\visual studio 2010\Projects\gimp_read_write\Debug\gimp_read_write.exp
C:\Users\7088881\documents\visual studio 2010\Projects\gimp_read_write\Debug\gimp_read_write.exp
^C:\Users\7088881\documents\visual studio 2010\Projects\gimp_read_write\gimp_read_write.vcxproj
C:\Users\7088881\documents\visual studio 2010\Projects\gimp_read_write\Debug\gimp_read_write.lib
C:\Users\7088881\documents\visual studio 2010\Projects\gimp_read_write\Debug\gimp_read_write.lib
C:\Users\7088881\documents\visual studio 2010\Projects\gimp_read_write\Debug\gimp_read_write.exp
C:\Users\7088881\documents\visual studio 2010\Projects\gimp_read_write\Debug\gimp_read_write.exp
^C:\Users\7088881\documents\visual studio 2010\Projects\gimp_read_write\gimp_read_write.vcxproj
C:\Users\7088881\documents\visual studio 2010\Projects\gimp_read_write\Debug\gimp_read_write.lib
C:\Users\7088881\documents\visual studio 2010\Projects\gimp_read_write\Debug\gimp_read_write.lib
C:\Users\7088881\documents\visual studio 2010\Projects\gimp_read_write\Debug\gimp_read_write.exp
C:\Users\7088881\documents\visual studio 2010\Projects\gimp_read_write\Debug\gimp_read_write.exp
^C:\Users\7088881\documents\visual studio 2010\Projects\gimp_read_write\gimp_read_write.vcxproj
C:\Users\7088881\documents\visual studio 2010\Projects\gimp_read_write\Debug\gimp_read_write.lib
C:\Users\7088881\documents\visual studio 2010\Projects\gimp_read_write\Debug\gimp_read_write.lib
C:\Users\7088881\documents\visual studio 2010\Projects\gimp_read_write\Debug\gimp_read_write.exp
C:\Users\7088881\documents\visual studio 2010\Projects\gimp_read_write\Debug\gimp_read_write.exp
^C:\Users\7088881\documents\visual studio 2010\Projects\gimp_read_write\gimp_read_write.vcxproj
C:\Users\7088881\documents\visual studio 2010\Projects\gimp_read_write\Debug\gimp_read_write.lib
C:\Users\7088881\documents\visual studio 2010\Projects\gimp_read_write\Debug\gimp_read_write.lib
C:\Users\7088881\documents\visual studio 2010\Projects\gimp_read_write\Debug\gimp_read_write.exp
C:\Users\7088881\documents\visual studio 2010\Projects\gimp_read_write\Debug\gimp_read_write.exp
^C:\Users\7088881\documents\visual studio 2010\Projects\gimp_read_write\gimp_read_write.vcxproj
C:\Users\7088881\documents\visual studio 2010\Projects\gimp_read_write\Debug\gimp_read_write.lib
C:\Users\7088881\documents\visual studio 2010\Projects\gimp_read_write\Debug\gimp_read_write.lib
C:\Users\7088881\documents\visual studio 2010\Projects\gimp_read_write\Debug\gimp_read_write.exp
C:\Users\7088881\documents\visual studio 2010\Projects\gimp_read_write\Debug\gimp_read_write.exp
^C:\Users\7088881\documents\visual studio 2010\Projects\gimp_read_write\gimp_read_write.vcxproj
C:\Users\7088881\documents\visual studio 2010\Projects\gimp_read_write\Debug\gimp_read_write.lib
C:\Users\7088881\documents\visual studio 2010\Projects\gimp_read_write\Debug\gimp_read_write.lib
C:\Users\7088881\documents\visual studio 2010\Projects\gimp_read_write\Debug\gimp_read_write.exp
C:\Users\7088881\documents\visual studio 2010\Projects\gimp_read_write\Debug\gimp_read_write.exp
^C:\Users\7088881\documents\visual studio 2010\Projects\gimp_read_write\gimp_read_write.vcxproj
C:\Users\7088881\documents\visual studio 2010\Projects\gimp_read_write\Debug\gimp_read_write.lib
C:\Users\7088881\documents\visual studio 2010\Projects\gimp_read_write\Debug\gimp_read_write.lib
C:\Users\7088881\documents\visual studio 2010\Projects\gimp_read_write\Debug\gimp_read_write.exp
C:\Users\7088881\documents\visual studio 2010\Projects\gimp_read_write\Debug\gimp_read_write.exp
^C:\Users\7088881\documents\visual studio 2010\Projects\gimp_read_write\gimp_read_write.vcxproj
C:\Users\7088881\documents\visual studio 2010\Projects\gimp_read_write\Debug\gimp_read_write.lib
C:\Users\7088881\documents\visual studio 2010\Projects\gimp_read_write\Debug\gimp_read_write.lib
C:\Users\7088881\documents\visual studio 2010\Projects\gimp_read_write\Debug\gimp_read_write.exp
C:\Users\7088881\documents\visual studio 2010\Projects\gimp_read_write\Debug\gimp_read_write.exp
^C:\Users\7088881\documents\visual studio 2010\Projects\gimp_read_write\gimp_read_write.vcxproj
C:\Users\7088881\documents\visual studio 2010\Projects\gimp_read_write\Debug\gimp_read_write.lib
C:\Users\7088881\documents\visual studio 2010\Projects\gimp_read_write\Debug\gimp_read_write.lib
C:\Users\7088881\documents\visual studio 2010\Projects\gimp_read_write\Debug\gimp_read_write.exp
C:\Users\7088881\documents\visual studio 2010\Projects\gimp_read_write\Debug\gimp_read_write.exp
^C:\Users\7088881\documents\visual studio 2010\Projects\gimp_read_write\gimp_read_write.vcxproj
C:\Users\7088881\documents\visual studio 2010\Projects\gimp_read_write\Debug\gimp_read_write.lib
C:\Users\7088881\documents\visual studio 2010\Projects\gimp_read_write\Debug\gimp_read_write.lib
C:\Users\7088881\documents\visual studio 2010\Projects\gimp_read_write\Debug\gimp_read_write.exp
C:\Users\7088881\documents\visual studio 2010\Projects\gimp_read_write\Debug\gimp_read_write.exp
^C:\Users\7088881\documents\visual studio 2010\Projects\gimp_read_write\gimp_read_write.vcxproj
C:\Users\7088881\documents\visual studio 2010\Projects\gimp_read_write\Debug\gimp_read_write.lib
C:\Users\7088881\documents\visual studio 2010\Projects\gimp_read_write\Debug\gimp_read_write.lib
C:\Users\7088881\documents\visual studio 2010\Projects\gimp_read_write\Debug\gimp_read_write.exp
C:\Users\7088881\documents\visual studio 2010\Projects\gimp_read_write\Debug\gimp_read_write.exp
^C:\Users\7088881\documents\visual studio 2010\Projects\gimp_read_write\gimp_read_write.vcxproj
C:\Users\7088881\documents\visual studio 2010\Projects\gimp_read_write\Debug\gimp_read_write.lib
C:\Users\7088881\documents\visual studio 2010\Projects\gimp_read_write\Debug\gimp_read_write.lib
C:\Users\7088881\documents\visual studio 2010\Projects\gimp_read_write\Debug\gimp_read_write.exp
C:\Users\7088881\documents\visual studio 2010\Projects\gimp_read_write\Debug\gimp_read_write.exp
^C:\Users\7088881\documents\visual studio 2010\Projects\gimp_read_write\gimp_read_write.vcxproj
C:\Users\7088881\documents\visual studio 2010\Projects\gimp_read_write\Debug\gimp_read_write.lib
C:\Users\7088881\documents\visual studio 2010\Projects\gimp_read_write\Debug\gimp_read_write.lib
C:\Users\7088881\documents\visual studio 2010\Projects\gimp_read_write\Debug\gimp_read_write.exp
C:\Users\7088881\documents\visual studio 2010\Projects\gimp_read_write\Debug\gimp_read_write.exp
^C:\Users\7088881\documents\visual studio 2010\Projects\gimp_read_write\gimp_read_write.vcxproj
C:\Users\7088881\documents\visual studio 2010\Projects\gimp_read_write\Debug\gimp_read_write.lib
C:\Users\7088881\documents\visual studio 2010\Projects\gimp_read_write\Debug\gimp_read_write.lib
C:\Users\7088881\documents\visual studio 2010\Projects\gimp_read_write\Debug\gimp_read_write.exp
C:\Users\7088881\documents\visual studio 2010\Projects\gimp_read_write\Debug\gimp_read_write.exp
^C:\Users\7088881\documents\visual studio 2010\Projects\gimp_read_write\gimp_read_write.vcxproj
C:\Users\7088881\documents\visual studio 2010\Projects\gimp_read_write\Debug\gimp_read_write.lib
C:\Users\7088881\documents\visual studio 2010\Projects\gimp_read_write\Debug\gimp_read_write.lib
C:\Users\7088881\documents\visual studio 2010\Projects\gimp_read_write\Debug\gimp_read_write.exp
C:\Users\7088881\documents\visual studio 2010\Projects\gimp_read_write\Debug\gimp_read_write.exp
^C:\Users\7088881\documents\visual studio 2010\Projects\gimp_read_write\gimp_read_write.vcxproj
C:\Users\7088881\documents\visual studio 2010\Projects\gimp_read_write\Debug\gimp_read_write.lib
C:\Users\7088881\documents\visual studio 2010\Projects\gimp_read_write\Debug\gimp_read_write.lib
C:\Users\7088881\documents\visual studio 2010\Projects\gimp_read_write\Debug\gimp_read_write.exp
C:\Users\7088881\documents\visual studio 2010\Projects\gimp_read_write\Debug\gimp_read_write.exp
^C:\Users\7088881\documents\visual studio 2010\Projects\gimp_read_write\gimp_read_write.vcxproj
C:\Users\7088881\documents\visual studio 2010\Projects\gimp_read_write\Debug\gimp_read_write.lib
C:\Users\7088881\documents\visual studio 2010\Projects\gimp_read_write\Debug\gimp_read_write.lib
C:\Users\7088881\documents\visual studio 2010\Projects\gimp_read_write\Debug\gimp_read_write.exp
C:\Users\7088881\documents\visual studio 2010\Projects\gimp_read_write\Debug\gimp_read_write.exp
^C:\Users\7088881\documents\visual studio 2010\Projects\gimp_read_write\gimp_read_write.vcxproj
C:\Users\7088881\documents\visual studio 2010\Projects\gimp_read_write\Debug\gimp_read_write.lib
C:\Users\7088881\documents\visual studio 2010\Projects\gimp_read_write\Debug\gimp_read_write.lib
C:\Users\7088881\documents\visual studio 2010\Projects\gimp_read_write\Debug\gimp_read_write.exp
C:\Users\7088881\documents\visual studio 2010\Projects\gimp_read_write\Debug\gimp_read_write.exp
^C:\Users\7088881\documents\visual studio 2010\Projects\gimp_read_write\gimp_read_write.vcxproj
C:\Users\7088881\documents\visual studio 2010\Projects\gimp_read_write\Debug\gimp_read_write.lib
C:\Users\7088881\documents\visual studio 2010\Projects\gimp_read_write\Debug\gimp_read_write.lib
C:\Users\7088881\documents\visual studio 2010\Projects\gimp_read_write\Debug\gimp_read_write.exp
C:\Users\7088881\documents\visual studio 2010\Projects\gimp_read_write\Debug\gimp_read_write.exp
^C:\Users\7088881\documents\visual studio 2010\Projects\gimp_read_write\gimp_read_write.vcxproj
C:\Users\7088881\documents\visual studio 2010\Projects\gimp_read_write\Debug\gimp_read_write.lib
C:\Users\7088881\documents\visual studio 2010\Projects\gimp_read_write\Debug\gimp_read_write.lib
C:\Users\7088881\documents\visual studio 2010\Projects\gimp_read_write\Debug\gimp_read_write.exp
C:\Users\7088881\documents\visual studio 2010\Projects\gimp_read_write\Debug\gimp_read_write.exp
^C:\Users\7088881\documents\visual studio 2010\Projects\gimp_read_write\gimp_read_write.vcxproj
C:\Users\7088881\documents\visual studio 2010\Projects\gimp_read_write\Debug\gimp_read_write.lib
C:\Users\7088881\documents\visual studio 2010\Projects\gimp_read_write\Debug\gimp_read_write.lib
C:\Users\7088881\documents\visual studio 2010\Projects\gimp_read_write\Debug\gimp_read_write.exp
C:\Users\7088881\documents\visual studio 2010\Projects\gimp_read_write\Debug\gimp_read_write.exp
^C:\Users\7088881\documents\visual studio 2010\Projects\gimp_read_write\gimp_read_write.vcxproj
C:\Users\7088881\documents\visual studio 2010\Projects\gimp_read_write\Debug\gimp_read_write.lib
C:\Users\7088881\documents\visual studio 2010\Projects\gimp_read_write\Debug\gimp_read_write.lib
C:\Users\7088881\documents\visual studio 2010\Projects\gimp_read_write\Debug\gimp_read_write.exp
C:\Users\7088881\documents\visual studio 2010\Projects\gimp_read_write\Debug\gimp_read_write.exp
^C:\Users\7088881\documents\visual studio 2010\Projects\gimp_read_write\gimp_read_write.vcxproj
C:\Users\7088881\documents\visual studio 2010\Projects\gimp_read_write\Debug\gimp_read_write.lib
C:\Users\7088881\documents\visual studio 2010\Projects\gimp_read_write\Debug\gimp_read_write.lib
C:\Users\7088881\documents\visual studio 2010\Projects\gimp_read_write\Debug\gimp_read_write.exp
C:\Users\7088881\documents\visual studio 2010\Projects\gimp_read_write\Debug\gimp_read_write.exp
^C:\Users\7088881\documents\visual studio 2010\Projects\gimp_read_write\gimp_read_write.vcxproj
C:\Users\7088881\documents\visual studio 2010\Projects\gimp_read_write\Debug\gimp_read_write.lib
C:\Users\7088881\documents\visual studio 2010\Projects\gimp_read_write\Debug\gimp_read_write.lib
C:\Users\7088881\documents\visual studio 2010\Projects\gimp_read_write\Debug\gimp_read_write.exp
C:\Users\7088881\documents\visual studio 2010\Projects\gimp_read_write\Debug\gimp_read_write.exp
^C:\Users\7088881\documents\visual studio 2010\Projects\gimp_read_write\gimp_read_write.vcxproj
C:\Users\7088881\documents\visual studio 2010\Projects\gimp_read_write\Debug\gimp_read_write.lib
C:\Users\7088881\documents\visual studio 2010\Projects\gimp_read_write\Debug\gimp_read_write.lib
C:\Users\7088881\documents\visual studio 2010\Projects\gimp_read_write\Debug\gimp_read_write.exp
C:\Users\7088881\documents\visual studio 2010\Projects\gimp_read_write\Debug\gimp_read_write.exp
^C:\Users\7088881\documents\visual studio 2010\Projects\gimp_read_write\gimp_read_write.vcxproj
C:\Users\7088881\documents\visual studio 2010\Projects\gimp_read_write\Debug\gimp_read_write.lib
C:\Users\7088881\documents\visual studio 2010\Projects\gimp_read_write\Debug\gimp_read_write.lib
C:\Users\7088881\documents\visual studio 2010\Projects\gimp_read_write\Debug\gimp_read_write.exp
C:\Users\7088881\documents\visual studio 2010\Projects\gimp_read_write\Debug\gimp_read_write.exp
^C:\Users\7088881\documents\visual studio 2010\Projects\gimp_read_write\gimp_read_write.vcxproj
C:\Users\7088881\documents\visual studio 2010\Projects\gimp_read_write\Debug\gimp_read_write.lib
C:\Users\7088881\documents\visual studio 2010\Projects\gimp_read_write\Debug\gimp_read_write.lib
C:\Users\7088881\documents\visual studio 2010\Projects\gimp_read_write\Debug\gimp_read_write.exp
C:\Users\7088881\documents\visual studio 2010\Projects\gimp_read_write\Debug\gimp_read_write.exp
^C:\Users\7088881\documents\visual studio 2010\Projects\gimp_read_write\gimp_read_write.vcxproj
C:\Users\7088881\documents\visual studio 2010\Projects\gimp_read_write\Debug\gimp_read_write.lib
C:\Users\7088881\documents\visual studio 2010\Projects\gimp_read_write\Debug\gimp_read_write.lib
C:\Users\7088881\documents\visual studio 2010\Projects\gimp_read_write\Debug\gimp_read_write.exp
C:\Users\7088881\documents\visual studio 2010\Projects\gimp_read_write\Debug\gimp_read_write.exp
^C:\Users\7088881\documents\visual studio 2010\Projects\gimp_read_write\gimp_read_write.vcxproj
C:\Users\7088881\documents\visual studio 2010\Projects\gimp_read_write\Debug\gimp_read_write.lib
C:\Users\7088881\documents\visual studio 2010\Projects\gimp_read_write\Debug\gimp_read_write.lib
C:\Users\7088881\documents\visual studio 2010\Projects\gimp_read_write\Debug\gimp_read_write.exp
C:\Users\7088881\documents\visual studio 2010\Projects\gimp_read_write\Debug\gimp_read_write.exp
^C:\Users\7088881\documents\visual studio 2010\Projects\gimp_read_write\gimp_read_write.vcxproj
C:\Users\7088881\documents\visual studio 2010\Projects\gimp_read_write\Debug\gimp_read_write.lib
C:\Users\7088881\documents\visual studio 2010\Projects\gimp_read_write\Debug\gimp_read_write.lib
C:\Users\7088881\documents\visual studio 2010\Projects\gimp_read_write\Debug\gimp_read_write.exp
C:\Users\7088881\documents\visual studio 2010\Projects\gimp_read_write\Debug\gimp_read_write.exp
^C:\Users\7088881\documents\visual studio 2010\Projects\gimp_read_write\gimp_read_write.vcxproj
C:\Users\7088881\documents\visual studio 2010\Projects\gimp_read_write\Debug\gimp_read_write.lib
C:\Users\7088881\documents\visual studio 2010\Projects\gimp_read_write\Debug\gimp_read_write.lib
C:\Users\7088881\documents\visual studio 2010\Projects\gimp_read_write\Debug\gimp_read_write.exp
C:\Users\7088881\documents\visual studio 2010\Projects\gimp_read_write\Debug\gimp_read_write.exp
^C:\Users\7088881\documents\visual studio 2010\Projects\gimp_read_write\gimp_read_write.vcxproj
C:\Users\7088881\documents\visual studio 2010\Projects\gimp_read_write\Debug\gimp_read_write.lib
C:\Users\7088881\documents\visual studio 2010\Projects\gimp_read_write\Debug\gimp_read_write.lib
C:\Users\7088881\documents\visual studio 2010\Projects\gimp_read_write\Debug\gimp_read_write.exp
C:\Users\7088881\documents\visual studio 2010\Projects\gimp_read_write\Debug\gimp_read_write.exp
^C:\Users\7088881\Documents\Visual Studio 2010\Projects\gimp_read_write\gimp_read_write.vcxproj
C:\Users\7088881\Documents\Visual Studio 2010\Projects\gimp_read_write\Debug\gimp_read_write.lib
C:\Users\7088881\Documents\Visual Studio 2010\Projects\gimp_read_write\Debug\gimp_read_write.lib
C:\Users\7088881\Documents\Visual Studio 2010\Projects\gimp_read_write\Debug\gimp_read_write.exp
C:\Users\7088881\Documents\Visual Studio 2010\Projects\gimp_read_write\Debug\gimp_read_write.exp
^C:\Users\7088881\Documents\Visual Studio 2010\Projects\gimp_read_write\gimp_read_write.vcxproj
C:\Users\7088881\Documents\Visual Studio 2010\Projects\gimp_read_write\Debug\gimp_read_write.lib
C:\Users\7088881\Documents\Visual Studio 2010\Projects\gimp_read_write\Debug\gimp_read_write.lib
C:\Users\7088881\Documents\Visual Studio 2010\Projects\gimp_read_write\Debug\gimp_read_write.exp
C:\Users\7088881\Documents\Visual Studio 2010\Projects\gimp_read_write\Debug\gimp_read_write.exp
^C:\Users\7088881\Documents\Visual Studio 2010\Projects\gimp_read_write\gimp_read_write.vcxproj
C:\Users\7088881\Documents\Visual Studio 2010\Projects\gimp_read_write\Debug\gimp_read_write.lib
C:\Users\7088881\Documents\Visual Studio 2010\Projects\gimp_read_write\Debug\gimp_read_write.lib
C:\Users\7088881\Documents\Visual Studio 2010\Projects\gimp_read_write\Debug\gimp_read_write.exp
C:\Users\7088881\Documents\Visual Studio 2010\Projects\gimp_read_write\Debug\gimp_read_write.exp
^C:\Users\7088881\Documents\Visual Studio 2010\Projects\gimp_read_write\gimp_read_write.vcxproj
C:\Users\7088881\Documents\Visual Studio 2010\Projects\gimp_read_write\Debug\gimp_read_write.lib
C:\Users\7088881\Documents\Visual Studio 2010\Projects\gimp_read_write\Debug\gimp_read_write.lib
C:\Users\7088881\Documents\Visual Studio 2010\Projects\gimp_read_write\Debug\gimp_read_write.exp
C:\Users\7088881\Documents\Visual Studio 2010\Projects\gimp_read_write\Debug\gimp_read_write.exp
^C:\Users\7088881\Documents\Visual Studio 2010\Projects\gimp_read_write\gimp_read_write.vcxproj
C:\Users\7088881\Documents\Visual Studio 2010\Projects\gimp_read_write\Debug\gimp_read_write.lib
C:\Users\7088881\Documents\Visual Studio 2010\Projects\gimp_read_write\Debug\gimp_read_write.lib
C:\Users\7088881\Documents\Visual Studio 2010\Projects\gimp_read_write\Debug\gimp_read_write.exp
C:\Users\7088881\Documents\Visual Studio 2010\Projects\gimp_read_write\Debug\gimp_read_write.exp
^C:\Users\7088881\Documents\Visual Studio 2010\Projects\gimp_read_write\gimp_read_write.vcxproj
C:\Users\7088881\Documents\Visual Studio 2010\Projects\gimp_read_write\Debug\gimp_read_write.lib
C:\Users\7088881\Documents\Visual Studio 2010\Projects\gimp_read_write\Debug\gimp_read_write.lib
C:\Users\7088881\Documents\Visual Studio 2010\Projects\gimp_read_write\Debug\gimp_read_write.exp
C:\Users\7088881\Documents\Visual Studio 2010\Projects\gimp_read_write\Debug\gimp_read_write.exp
^C:\Users\7088881\Documents\Visual Studio 2010\Projects\gimp_read_write\gimp_read_write.vcxproj
C:\Users\7088881\Documents\Visual Studio 2010\Projects\gimp_read_write\Debug\gimp_read_write.lib
C:\Users\7088881\Documents\Visual Studio 2010\Projects\gimp_read_write\Debug\gimp_read_write.lib
C:\Users\7088881\Documents\Visual Studio 2010\Projects\gimp_read_write\Debug\gimp_read_write.exp
C:\Users\7088881\Documents\Visual Studio 2010\Projects\gimp_read_write\Debug\gimp_read_write.exp
^C:\Users\7088881\Documents\Visual Studio 2010\Projects\gimp_read_write\gimp_read_write.vcxproj
C:\Users\7088881\Documents\Visual Studio 2010\Projects\gimp_read_write\Debug\gimp_read_write.lib
C:\Users\7088881\Documents\Visual Studio 2010\Projects\gimp_read_write\Debug\gimp_read_write.lib
C:\Users\7088881\Documents\Visual Studio 2010\Projects\gimp_read_write\Debug\gimp_read_write.exp
C:\Users\7088881\Documents\Visual Studio 2010\Projects\gimp_read_write\Debug\gimp_read_write.exp
^C:\Users\7088881\Documents\Visual Studio 2010\Projects\gimp_read_write\gimp_read_write.vcxproj
C:\Users\7088881\Documents\Visual Studio 2010\Projects\gimp_read_write\Debug\gimp_read_write.lib
C:\Users\7088881\Documents\Visual Studio 2010\Projects\gimp_read_write\Debug\gimp_read_write.lib
C:\Users\7088881\Documents\Visual Studio 2010\Projects\gimp_read_write\Debug\gimp_read_write.exp
C:\Users\7088881\Documents\Visual Studio 2010\Projects\gimp_read_write\Debug\gimp_read_write.exp
^C:\Users\7088881\Documents\Visual Studio 2010\Projects\gimp_read_write\gimp_read_write.vcxproj
C:\Users\7088881\Documents\Visual Studio 2010\Projects\gimp_read_write\Debug\gimp_read_write.lib
C:\Users\7088881\Documents\Visual Studio 2010\Projects\gimp_read_write\Debug\gimp_read_write.lib
C:\Users\7088881\Documents\Visual Studio 2010\Projects\gimp_read_write\Debug\gimp_read_write.exp
C:\Users\7088881\Documents\Visual Studio 2010\Projects\gimp_read_write\Debug\gimp_read_write.exp
^C:\Users\7088881\Documents\Visual Studio 2010\Projects\gimp_read_write\gimp_read_write.vcxproj
C:\Users\7088881\Documents\Visual Studio 2010\Projects\gimp_read_write\Debug\gimp_read_write.lib
C:\Users\7088881\Documents\Visual Studio 2010\Projects\gimp_read_write\Debug\gimp_read_write.lib
C:\Users\7088881\Documents\Visual Studio 2010\Projects\gimp_read_write\Debug\gimp_read_write.exp
C:\Users\7088881\Documents\Visual Studio 2010\Projects\gimp_read_write\Debug\gimp_read_write.exp
^C:\Users\7088881\Documents\Visual Studio 2010\Projects\gimp_read_write\gimp_read_write.vcxproj
C:\Users\7088881\Documents\Visual Studio 2010\Projects\gimp_read_write\Debug\gimp_read_write.lib
C:\Users\7088881\Documents\Visual Studio 2010\Projects\gimp_read_write\Debug\gimp_read_write.lib
C:\Users\7088881\Documents\Visual Studio 2010\Projects\gimp_read_write\Debug\gimp_read_write.exp
C:\Users\7088881\Documents\Visual Studio 2010\Projects\gimp_read_write\Debug\gimp_read_write.exp
^C:\Users\7088881\Documents\Visual Studio 2010\Projects\gimp_read_write\gimp_read_write.vcxproj
C:\Users\7088881\Documents\Visual Studio 2010\Projects\gimp_read_write\Debug\gimp_read_write.lib
C:\Users\7088881\Documents\Visual Studio 2010\Projects\gimp_read_write\Debug\gimp_read_write.lib
C:\Users\7088881\Documents\Visual Studio 2010\Projects\gimp_read_write\Debug\gimp_read_write.exp
C:\Users\7088881\Documents\Visual Studio 2010\Projects\gimp_read_write\Debug\gimp_read_write.exp
^C:\Users\7088881\Documents\Visual Studio 2010\Projects\gimp_read_write\gimp_read_write.vcxproj
C:\Users\7088881\Documents\Visual Studio 2010\Projects\gimp_read_write\Debug\gimp_read_write.lib
C:\Users\7088881\Documents\Visual Studio 2010\Projects\gimp_read_write\Debug\gimp_read_write.lib
C:\Users\7088881\Documents\Visual Studio 2010\Projects\gimp_read_write\Debug\gimp_read_write.exp
C:\Users\7088881\Documents\Visual Studio 2010\Projects\gimp_read_write\Debug\gimp_read_write.exp
^C:\Users\7088881\Documents\Visual Studio 2010\Projects\gimp_read_write\gimp_read_write.vcxproj
C:\Users\7088881\Documents\Visual Studio 2010\Projects\gimp_read_write\Debug\gimp_read_write.lib
C:\Users\7088881\Documents\Visual Studio 2010\Projects\gimp_read_write\Debug\gimp_read_write.lib
C:\Users\7088881\Documents\Visual Studio 2010\Projects\gimp_read_write\Debug\gimp_read_write.exp
C:\Users\7088881\Documents\Visual Studio 2010\Projects\gimp_read_write\Debug\gimp_read_write.exp
