^C:\USERS\7088881\DOCUMENTS\VISUAL STUDIO 2010\PROJECTS\LAB5\LAB5_1.CPP
C:\USERS\7088881\DOCUMENTS\VISUAL STUDIO 2010\PROJECTS\LAB5\DEBUG\VC100.PDB
C:\USERS\7088881\DOCUMENTS\VISUAL STUDIO 2010\PROJECTS\LAB5\DEBUG\LAB5_1.OBJ
^C:\USERS\7088881\DOCUMENTS\VISUAL STUDIO 2010\PROJECTS\LAB5\LAB5_2.CPP
C:\USERS\7088881\DOCUMENTS\VISUAL STUDIO 2010\PROJECTS\LAB5\DEBUG\VC100.PDB
C:\USERS\7088881\DOCUMENTS\VISUAL STUDIO 2010\PROJECTS\LAB5\DEBUG\LAB5_2.OBJ
