^C:\USERS\7088881\DOCUMENTS\VISUAL STUDIO 2010\PROJECTS\PROG_3\PROG3.CPP
C:\USERS\7088881\DOCUMENTS\VISUAL STUDIO 2010\PROJECTS\PROG_3\DEBUG\VC100.PDB
C:\USERS\7088881\DOCUMENTS\VISUAL STUDIO 2010\PROJECTS\PROG_3\DEBUG\PROG3.OBJ
