^C:\USERS\7088881\DOCUMENTS\VISUAL STUDIO 2010\PROJECTS\FUNCTIONS TEMPLATE AND TEST\DEBUG\FUNCTIONS TEMPLATE AND TEST.EXE.EMBED.MANIFEST.RES|C:\USERS\7088881\DOCUMENTS\VISUAL STUDIO 2010\PROJECTS\FUNCTIONS TEMPLATE AND TEST\DEBUG\SOURCE.OBJ
/ERRORREPORT:PROMPT /OUT:"c:\users\7088881\documents\visual studio 2010\Projects\Functions template and test\Debug\Functions template and test.exe" /INCREMENTAL /NOLOGO kernel32.lib user32.lib gdi32.lib winspool.lib comdlg32.lib advapi32.lib shell32.lib ole32.lib oleaut32.lib uuid.lib odbc32.lib odbccp32.lib /MANIFEST /ManifestFile:"Debug\Functions template and test.exe.intermediate.manifest" /MANIFESTUAC:"level='asInvoker' uiAccess='false'" /DEBUG /PDB:"c:\users\7088881\documents\visual studio 2010\Projects\Functions template and test\Debug\Functions template and test.pdb" /SUBSYSTEM:CONSOLE /TLBID:1 /DYNAMICBASE /NXCOMPAT /IMPLIB:"c:\users\7088881\documents\visual studio 2010\Projects\Functions template and test\Debug\Functions template and test.lib" /MACHINE:X86 "Debug\Functions template and test.exe.embed.manifest.res"
Debug\source.obj
