^C:\USERS\7088881\DOCUMENTS\VISUAL STUDIO 2010\PROJECTS\FUNC FOR PROG 4 TEST\DEBUG\FUNC FOR PROG 4 TEST.EXE.EMBED.MANIFEST.RES|C:\USERS\7088881\DOCUMENTS\VISUAL STUDIO 2010\PROJECTS\FUNC FOR PROG 4 TEST\DEBUG\TEST.OBJ
C:\USERS\7088881\DOCUMENTS\VISUAL STUDIO 2010\PROJECTS\FUNC FOR PROG 4 TEST\DEBUG\FUNC FOR PROG 4 TEST.ILK
C:\USERS\7088881\DOCUMENTS\VISUAL STUDIO 2010\PROJECTS\FUNC FOR PROG 4 TEST\DEBUG\FUNC FOR PROG 4 TEST.EXE
C:\USERS\7088881\DOCUMENTS\VISUAL STUDIO 2010\PROJECTS\FUNC FOR PROG 4 TEST\DEBUG\FUNC FOR PROG 4 TEST.EXE.INTERMEDIATE.MANIFEST
C:\USERS\7088881\DOCUMENTS\VISUAL STUDIO 2010\PROJECTS\FUNC FOR PROG 4 TEST\DEBUG\FUNC FOR PROG 4 TEST.PDB
