^C:\USERS\7088881\DOCUMENTS\VISUAL STUDIO 2010\PROJECTS\FUNC FOR PROG 4 TEST\DEBUG\FUNC FOR PROG 4 TEST.EXE.EMBED.MANIFEST.RES|C:\USERS\7088881\DOCUMENTS\VISUAL STUDIO 2010\PROJECTS\FUNC FOR PROG 4 TEST\DEBUG\TEST.OBJ
C:\PROGRAM FILES\MICROSOFT SDKS\WINDOWS\V7.0A\LIB\KERNEL32.LIB
C:\PROGRAM FILES\MICROSOFT SDKS\WINDOWS\V7.0A\LIB\USER32.LIB
C:\PROGRAM FILES\MICROSOFT SDKS\WINDOWS\V7.0A\LIB\GDI32.LIB
C:\PROGRAM FILES\MICROSOFT SDKS\WINDOWS\V7.0A\LIB\WINSPOOL.LIB
C:\PROGRAM FILES\MICROSOFT SDKS\WINDOWS\V7.0A\LIB\COMDLG32.LIB
C:\PROGRAM FILES\MICROSOFT SDKS\WINDOWS\V7.0A\LIB\ADVAPI32.LIB
C:\PROGRAM FILES\MICROSOFT SDKS\WINDOWS\V7.0A\LIB\SHELL32.LIB
C:\PROGRAM FILES\MICROSOFT SDKS\WINDOWS\V7.0A\LIB\OLE32.LIB
C:\PROGRAM FILES\MICROSOFT SDKS\WINDOWS\V7.0A\LIB\OLEAUT32.LIB
C:\PROGRAM FILES\MICROSOFT SDKS\WINDOWS\V7.0A\LIB\UUID.LIB
C:\PROGRAM FILES\MICROSOFT SDKS\WINDOWS\V7.0A\LIB\ODBC32.LIB
C:\PROGRAM FILES\MICROSOFT SDKS\WINDOWS\V7.0A\LIB\ODBCCP32.LIB
C:\USERS\7088881\DOCUMENTS\VISUAL STUDIO 2010\PROJECTS\FUNC FOR PROG 4 TEST\DEBUG\FUNC FOR PROG 4 TEST.EXE.EMBED.MANIFEST.RES
C:\USERS\7088881\DOCUMENTS\VISUAL STUDIO 2010\PROJECTS\FUNC FOR PROG 4 TEST\DEBUG\TEST.OBJ
C:\WINDOWS\SYSTEM32\TZRES.DLL
C:\USERS\7088881\DOCUMENTS\VISUAL STUDIO 2010\PROJECTS\FUNC FOR PROG 4 TEST\DEBUG\FUNC FOR PROG 4 TEST.EXE
C:\USERS\7088881\DOCUMENTS\VISUAL STUDIO 2010\PROJECTS\FUNC FOR PROG 4 TEST\DEBUG\FUNC FOR PROG 4 TEST.PDB
C:\WINDOWS\GLOBALIZATION\SORTING\SORTDEFAULT.NLS
C:\PROGRAM FILES\MICROSOFT VISUAL STUDIO 10.0\VC\LIB\MSVCPRTD.LIB
C:\PROGRAM FILES\MICROSOFT VISUAL STUDIO 10.0\VC\LIB\MSVCRTD.LIB
C:\PROGRAM FILES\MICROSOFT VISUAL STUDIO 10.0\VC\LIB\OLDNAMES.LIB
